{
  "version": 2,
  "exports": {
    "DAL/1.0.0": {
      "type": "project",
      "framework": ".NETFramework,Version=v4.6.1",
      "compile": {
        "bin/Release/DAL.dll": {}
      },
      "runtime": {
        "../packages/FluentData.3.0.1.0/lib/FluentData.dll": {},
        "bin/Release/DAL.dll": {}
      },
      "contentFiles": {
        "bin/Release/DAL.pdb": {
          "buildAction": "None",
          "codeLanguage": "any",
          "copyToOutput": true
        }
      }
    },
    "HealthUp.Server.Dal/1.0.0": {
      "type": "project",
      "framework": ".NETFramework,Version=v4.6.1",
      "compile": {
        "bin/Release/HealthUp.Server.Dal.dll": {}
      },
      "runtime": {
        "../../packages/Autofac.4.2.1/lib/net45/Autofac.dll": {},
        "../../packages/EntityFramework.6.1.3/lib/net45/EntityFramework.SqlServer.dll": {},
        "../../packages/EntityFramework.6.1.3/lib/net45/EntityFramework.dll": {},
        "bin/Release/HealthUp.Server.Dal.dll": {}
      },
      "contentFiles": {
        "bin/Release/HealthUp.Server.Dal.pdb": {
          "buildAction": "None",
          "codeLanguage": "any",
          "copyToOutput": true
        }
      }
    },
    "HealthUp.Server/1.0.0": {
      "type": "project",
      "framework": ".NETFramework,Version=v4.6.1",
      "compile": {
        "bin/Release/HealthUp.Server.dll": {}
      },
      "runtime": {
        "../../packages/Autofac.4.2.1/lib/net45/Autofac.dll": {},
        "../../packages/Newtonsoft.Json.9.0.1/lib/net45/Newtonsoft.Json.dll": {},
        "bin/Release/HealthUp.Server.dll": {}
      },
      "contentFiles": {
        "bin/Release/HealthUp.Server.pdb": {
          "buildAction": "None",
          "codeLanguage": "any",
          "copyToOutput": true
        }
      }
    }
  }
}